{
  "template": "inventum-logstash.*",
  "settings" : {
    "index.refresh_interval" : "5s",
    "index.number_of_shards" : 3,
"analysis" : {
            "analyzer" : {
                "my_edge_ngram_analyzer" : {
                    "tokenizer" : "my_edge_ngram_tokenizer"
                }
            },
            "tokenizer" : {
                "my_edge_ngram_tokenizer" : {
                    "type" : "edgeNGram",
                    "min_gram" : "2",
                    "max_gram" : "17"
                }
            }
        }
 },
  "mappings" : {
    "rabbit-input" : {
       "properties" : {
       "_id" : {
          "type" : "string",  
          "store" : true
        },
	"message" : {"type": "string" },
        "system_type" : {"type": "string"},
        "system_id" : {"type": "string"},
        "tenant_id" : {"type": "string"},
        "network_id" : {"type": "string"},
        "ss_user_id" : {"type": "string"},
        "ss_service_id" : {"type": "string"},
        "ss_ses_id" : {"type": "string"},
        "ns_ses_id" : {"type": "string"},
        "ses_start_time" : {"type": "date"},
        "ses_end_time" : {"type": "date"},
        "event_time" : {"type": "date"},
        "event_time_formatted" : {"type" : "string"},
        "log_type" : {"type": "string"},
        "ue_ip" : {"type": "ip"},
        "ue_mac" : {"type": "string",
        "index_analyzer" : "my_edge_ngram_analyzer",
                "search_analyzer": "keyword" 
        },
        "ue_snat_ip" : {"type": "ip"},
"uri" : {"type": "string"},
        "src_ip" : {"type": "ip"},
        "dst_ip" : {"type": "ip"},
        "proto" : {"type": "string"},
        "src_port" : {"type": "string"},
        "dst_port" : {"type": "string"},

        "bytes_in" : {"type": "string"},
        "bytes_out" : {"type": "string"},
        "tuple_end_time" : {"type": "date"}
             }
         }
       }
    }
